<svg xmlns="http://www.w3.org/2000/svg" height="511pt" version="1.1" viewBox="-15 0 511 511.99746" width="511pt">
<g id="surface1">
<path d="M 418.164062 19.542969 L 415.246094 20.402344 L 416.144531 23.304688 C 419.132812 32.972656 425.109375 41.761719 432.976562 48.0625 C 441.300781 54.71875 451.761719 58.660156 462.429688 59.15625 L 464.917969 59.273438 L 465.488281 56.847656 C 469.449219 40.039062 472.800781 23.265625 475.632812 8.859375 L 476.539062 4.246094 L 471.972656 5.367188 C 454.703125 9.609375 436.320312 14.199219 418.164062 19.542969 Z M 418.164062 19.542969 " style=" stroke:none;fill-rule:nonzero;fill:rgb(35.686275%,36.470588%,42.745098%);fill-opacity:1;" />
<path d="M 333.796875 274.273438 L 331.730469 271.367188 L 315.816406 287.417969 L 317.351562 289.488281 C 327.757812 303.523438 332.734375 324.636719 329.179688 339.691406 C 325.167969 356.726562 315.699219 371.585938 306.964844 383.875 C 284.175781 415.964844 256.34375 443.871094 224.234375 466.820312 L 221.644531 468.671875 L 223.648438 471.148438 C 225.238281 473.117188 227.761719 475.820312 231.277344 476.582031 C 231.949219 476.730469 232.648438 476.804688 233.355469 476.804688 C 237.613281 476.804688 241.722656 474.171875 245.527344 471.324219 C 275.765625 448.691406 301.675781 421.25 322.542969 389.757812 C 336.269531 369.042969 344.152344 351.4375 347.347656 334.351562 C 350.976562 314.933594 345.527344 290.789062 333.796875 274.273438 Z M 333.796875 274.273438 " style=" stroke:none;fill-rule:nonzero;fill:rgb(84.705882%,87.058824%,92.54902%);fill-opacity:1;" />
<path d="M 163.324219 157.007812 C 157.957031 157.007812 152.472656 157.523438 147.019531 158.542969 C 129.945312 161.738281 112.34375 169.617188 91.621094 183.339844 C 60.105469 204.226562 32.664062 230.140625 10.058594 260.363281 C 6.683594 264.871094 3.710938 269.71875 4.789062 274.617188 C 5.566406 278.125 8.261719 280.644531 10.21875 282.238281 L 12.695312 284.25 L 14.550781 281.65625 C 37.488281 249.5625 65.398438 221.726562 97.496094 198.925781 C 109.796875 190.191406 124.664062 180.71875 141.679688 176.710938 C 146.839844 175.492188 152.070312 174.875 157.226562 174.875 C 169.210938 174.875 180.34375 178.246094 188.644531 184.40625 L 190.742188 187.082031 L 206.121094 170.574219 L 203.265625 168.601562 C 192.277344 161.015625 178.464844 157.007812 163.324219 157.007812 Z M 163.324219 157.007812 " style=" stroke:none;fill-rule:nonzero;fill:rgb(84.705882%,87.058824%,92.54902%);fill-opacity:1;" />
<path d="M 153.371094 406.703125 L 150.613281 404.414062 C 149.347656 403.363281 148.046875 402.28125 146.695312 401.148438 L 145.871094 400.460938 L 145.875 400.460938 L 143.605469 398.558594 C 141.515625 396.8125 139.347656 394.992188 137.078125 393.082031 L 134.917969 391.265625 L 132.4375 389.175781 C 130.53125 387.574219 128.605469 385.949219 126.667969 384.308594 L 124.316406 382.324219 L 124.3125 382.328125 L 113.457031 373.128906 L 104.171875 365.257812 L 99.742188 361.488281 C 97.539062 359.609375 95.371094 357.761719 93.246094 355.964844 L 92.476562 355.308594 L 92.484375 355.304688 L 90.183594 353.347656 C 87.234375 350.839844 84.40625 348.429688 81.726562 346.140625 L 79.578125 344.304688 L 79.574219 344.3125 L 71.546875 337.457031 L 64.183594 345.53125 L 66.101562 347.554688 C 67.542969 349.078125 68.988281 350.59375 70.445312 352.109375 L 72.601562 354.355469 L 72.621094 354.335938 L 73.296875 355.023438 C 75.992188 357.765625 78.746094 360.511719 81.484375 363.179688 L 82.359375 364.03125 L 82.351562 364.042969 L 84.398438 366.011719 C 86.796875 368.316406 89.402344 370.761719 92.367188 373.496094 L 93.113281 374.183594 L 93.105469 374.195312 L 95.347656 376.246094 C 97.601562 378.304688 100.074219 380.507812 103.140625 383.183594 L 103.894531 383.84375 L 103.878906 383.863281 L 106.195312 385.855469 C 108.796875 388.09375 111.507812 390.375 114.480469 392.835938 L 115.316406 393.523438 L 115.304688 393.535156 L 117.617188 395.417969 C 120.347656 397.640625 123.085938 399.804688 125.167969 401.441406 L 125.96875 402.066406 L 125.960938 402.078125 L 127.359375 403.164062 L 127.507812 403.277344 L 128.367188 403.941406 C 130.472656 405.578125 132.6875 407.261719 135.136719 409.09375 L 135.875 409.644531 L 135.871094 409.648438 L 136.410156 410.046875 L 137.441406 410.816406 L 137.445312 410.808594 L 138.402344 411.515625 C 139.972656 412.671875 141.550781 413.820312 143.132812 414.957031 L 143.855469 415.476562 L 143.847656 415.484375 L 146.433594 417.324219 C 147.832031 418.324219 149.246094 419.300781 150.65625 420.277344 L 152.800781 421.761719 L 154.566406 419.84375 C 156.046875 418.242188 157.421875 416.699219 158.761719 415.128906 L 160.746094 412.8125 L 153.371094 406.707031 Z M 153.371094 406.703125 " style=" stroke:none;fill-rule:nonzero;fill:rgb(57.647059%,60.784314%,66.666667%);fill-opacity:1;" />
<path d="M 401.925781 120.925781 L 136.328125 391.050781 L 138.808594 393.136719 C 158.90625 410.023438 170.996094 419.945312 175.769531 423.464844 L 177.855469 425.003906 L 355.960938 245.421875 C 379.972656 221.222656 404.800781 196.195312 423.300781 166.75 C 423.875 165.832031 424.433594 164.914062 424.988281 163.988281 L 427.632812 159.632812 L 423.554688 158.722656 C 414.847656 156.78125 407.21875 150.59375 403.640625 142.578125 C 401.808594 138.476562 401.015625 133.796875 401.351562 129.042969 Z M 401.925781 120.925781 " style=" stroke:none;fill-rule:nonzero;fill:rgb(35.686275%,81.568627%,98.823529%);fill-opacity:1;" />
<path d="M 370.417969 83.101562 L 362.726562 89.703125 C 279.742188 160.929688 199.359375 243.71875 102.09375 358.136719 L 100.152344 360.421875 L 102.4375 362.367188 C 112.480469 370.910156 123.179688 379.972656 133.375 388.574219 L 135.5 390.367188 L 396.585938 124.828125 L 387.628906 126.226562 C 386.613281 126.382812 385.601562 126.464844 384.628906 126.464844 C 382.878906 126.464844 381.160156 126.207031 379.515625 125.691406 C 372.859375 123.640625 365.730469 115.941406 365.800781 103.882812 C 365.816406 100.40625 366.394531 96.789062 367.558594 92.828125 Z M 370.417969 83.101562 " style=" stroke:none;fill-rule:nonzero;fill:rgb(35.686275%,81.568627%,98.823529%);fill-opacity:1;" />
<path d="M 316.96875 70.347656 L 319.113281 62.347656 L 312.34375 67.121094 C 310.835938 68.179688 309.351562 69.261719 307.847656 70.363281 C 285.519531 86.972656 266.25 107.644531 247.617188 127.632812 L 122.574219 261.765625 C 118.996094 265.609375 115.4375 269.484375 111.878906 273.355469 L 111.300781 273.984375 C 102.671875 283.371094 93.75 293.078125 84.585938 302.214844 C 82.441406 304.34375 80.105469 306.53125 78.101562 308.390625 L 78.019531 308.464844 C 72.511719 313.617188 66.816406 318.945312 62.644531 324.886719 L 61.070312 327.128906 L 63.160156 328.898438 C 65.253906 330.675781 68.3125 333.289062 72.113281 336.535156 L 72.285156 336.679688 C 78.203125 341.730469 87.015625 349.25 97.046875 357.785156 L 99.332031 359.730469 L 101.277344 357.445312 C 193.0625 249.46875 268.730469 170.773438 346.621094 102.285156 L 354.46875 95.386719 L 344.15625 97.070312 C 342.476562 97.34375 340.796875 97.484375 339.160156 97.484375 C 339.15625 97.484375 339.15625 97.484375 339.15625 97.484375 C 334.855469 97.484375 330.816406 96.515625 327.472656 94.679688 C 320.882812 91.070312 316.476562 83.882812 316.25 76.371094 C 316.1875 74.378906 316.429688 72.351562 316.96875 70.347656 Z M 316.96875 70.347656 " style=" stroke:none;fill-rule:nonzero;fill:rgb(35.686275%,81.568627%,98.823529%);fill-opacity:1;" />
<path d="M 432.3125 48.898438 C 424.277344 42.46875 418.167969 33.46875 415.105469 23.566406 L 414.222656 20.707031 L 411.363281 21.582031 C 377.636719 31.894531 351.230469 43.085938 328.261719 56.792969 L 327.460938 57.273438 L 327.070312 58.125 C 327.035156 58.199219 326.980469 58.261719 326.898438 58.316406 C 320.945312 62.074219 317.097656 69.320312 317.320312 76.339844 C 317.53125 83.46875 321.71875 90.304688 327.988281 93.75 C 331.195312 95.507812 335.058594 96.4375 339.152344 96.4375 C 343.597656 96.4375 348.304688 95.355469 352.769531 93.308594 C 360.6875 89.679688 367.238281 83.703125 373.609375 77.886719 C 373.734375 77.773438 373.875 77.75 373.96875 77.75 C 374.050781 77.75 374.175781 77.769531 374.285156 77.847656 C 374.484375 77.996094 374.5625 78.273438 374.421875 78.574219 C 370.90625 86.226562 366.921875 94.902344 366.867188 103.890625 C 366.8125 112.210938 371.246094 122.023438 379.832031 124.675781 C 381.378906 125.15625 382.996094 125.394531 384.644531 125.394531 C 390.945312 125.394531 397.835938 122.003906 406.332031 114.71875 C 406.453125 114.613281 406.585938 114.59375 406.675781 114.59375 C 406.769531 114.59375 406.90625 114.617188 407.03125 114.730469 C 407.230469 114.910156 407.265625 115.210938 407.117188 115.429688 C 401.777344 123.117188 400.800781 133.601562 404.621094 142.140625 C 408.402344 150.621094 416.777344 156.867188 425.996094 158.09375 L 428.230469 158.53125 L 429.296875 156.640625 C 443.398438 131.53125 454.359375 102.046875 463.800781 63.851562 L 464.65625 60.390625 L 461.101562 60.136719 C 450.671875 59.394531 440.449219 55.402344 432.3125 48.898438 Z M 432.3125 48.898438 " style=" stroke:none;fill-rule:nonzero;fill:rgb(100%,82.352941%,73.333333%);fill-opacity:1;" />
<path d="M 46.613281 438.984375 C 45.390625 439.40625 44.226562 439.777344 43.144531 440.089844 L 43.050781 440.117188 L 42.957031 440.148438 C 30.386719 444.707031 19.761719 454.101562 13.808594 465.921875 C 9.550781 474.386719 7.691406 483.996094 8.4375 493.710938 L 14.242188 494.527344 C 15.910156 490.039062 17.972656 486.210938 20.546875 482.828125 C 26.289062 475.289062 34.949219 470.605469 43.148438 470.605469 C 43.585938 470.605469 44.015625 470.621094 44.441406 470.644531 C 46.957031 470.800781 49.460938 471.371094 51.667969 471.875 C 53.355469 472.257812 54.953125 472.621094 56.613281 472.859375 C 57.914062 473.046875 59.253906 473.140625 60.589844 473.140625 C 74.472656 473.140625 87.664062 463.269531 91.269531 450.199219 C 91.335938 449.964844 91.550781 449.800781 91.804688 449.800781 C 92.039062 449.800781 92.246094 449.964844 92.308594 450.203125 C 93.90625 456.359375 93.210938 463.328125 90.394531 469.324219 L 87.324219 475.871094 L 94.128906 473.421875 C 102.472656 470.417969 109.917969 465.417969 115.652344 458.964844 C 123.832031 449.765625 129.636719 435.910156 130.140625 424.410156 L 130.429688 422.625 L 129 421.535156 C 126.6875 419.769531 124.382812 417.992188 122.078125 416.207031 L 117.929688 412.992188 L 117.265625 418.199219 C 115.972656 428.355469 109.640625 437.808594 100.902344 442.847656 C 101.550781 439.203125 101.402344 435.421875 100.453125 431.78125 L 98.460938 424.132812 L 94.878906 431.179688 C 92.125 436.589844 87.371094 440.902344 81.851562 443.097656 C 84.742188 438.246094 86.382812 432.75 86.628906 427.046875 L 86.867188 421.554688 L 82.117188 424.328125 C 74.667969 428.679688 68.816406 435.84375 65.992188 443.90625 C 64.480469 437.128906 65.46875 429.644531 68.804688 423.316406 L 72.6875 415.949219 L 65 419.148438 C 58.949219 421.667969 52.296875 422.996094 45.765625 422.996094 C 45.390625 422.996094 45.015625 422.992188 44.640625 422.984375 C 49.875 419.738281 53.519531 414.535156 56.203125 410.132812 C 57.015625 408.800781 57.796875 407.449219 58.617188 406.03125 C 61.199219 401.582031 63.867188 396.976562 67.515625 393.359375 C 70.699219 390.199219 74.589844 388.101562 78.472656 387.445312 L 84.882812 386.367188 L 78.914062 381.363281 C 78.191406 380.761719 77.472656 380.160156 76.753906 379.550781 L 76.113281 379.007812 L 75.285156 378.875 C 75.257812 378.871094 75.222656 378.859375 75.214844 378.859375 C 73.035156 377.953125 70.652344 377.496094 68.121094 377.496094 C 62.695312 377.496094 57.121094 379.578125 52.429688 383.363281 C 45.640625 388.832031 41.394531 396.972656 38.449219 403.460938 C 37.597656 405.339844 36.773438 407.273438 35.976562 409.144531 L 35.742188 409.695312 C 33.40625 415.183594 30.984375 420.863281 27.714844 426.050781 C 25.011719 430.347656 21.898438 433.910156 18.460938 436.640625 L 12.007812 441.761719 L 20.242188 441.988281 C 20.917969 442.007812 21.59375 442.015625 22.265625 442.015625 C 29.171875 442.015625 36.03125 441.042969 42.648438 439.121094 L 42.820312 439.066406 C 43.941406 438.664062 45.117188 438.292969 46.285156 437.960938 C 46.335938 437.949219 46.382812 437.941406 46.429688 437.941406 C 46.628906 437.941406 46.867188 438.058594 46.953125 438.324219 C 47.03125 438.601562 46.882812 438.890625 46.613281 438.984375 Z M 46.613281 438.984375 " style=" stroke:none;fill-rule:nonzero;fill:rgb(92.941176%,42.745098%,40%);fill-opacity:1;" />
<path d="M 99.855469 444.277344 C 100.289062 444.496094 100.894531 444.570312 101.738281 444.453125 C 104.804688 444.023438 108.386719 439.84375 110.347656 437.65625 C 115.722656 431.660156 119.105469 423.816406 119.445312 415.746094 L 119.511719 414.207031 L 118.296875 413.257812 C 106.785156 404.269531 95.429688 395.125 84.535156 386.074219 L 83.890625 385.535156 L 83.058594 385.414062 C 82.34375 385.308594 81.605469 385.253906 80.871094 385.253906 C 73.449219 385.253906 67.714844 390.398438 66.136719 391.972656 C 62.296875 395.78125 59.675781 400.300781 56.871094 405.128906 C 56.101562 406.460938 55.324219 407.800781 54.527344 409.109375 C 52.65625 412.183594 50.589844 415.183594 48.039062 417.742188 C 45.078125 420.707031 40.863281 425.195312 48.109375 424.90625 C 55.238281 424.625 62.34375 422.761719 68.734375 419.613281 C 67.550781 420.195312 66.398438 423.6875 65.898438 424.859375 C 65.019531 426.941406 64.3125 429.140625 63.917969 431.367188 C 63.179688 435.492188 63.914062 440.5625 64.789062 444.648438 C 64.914062 445.238281 65.160156 445.929688 65.75 446.050781 C 66.402344 446.179688 66.90625 445.507812 67.226562 444.929688 C 69.480469 440.890625 71.378906 436.785156 74.441406 433.257812 C 75.882812 431.597656 77.480469 430.066406 79.207031 428.699219 C 79.773438 428.253906 84.691406 425.476562 84.691406 425.160156 C 84.757812 430.089844 83.679688 435.027344 81.542969 439.519531 C 80.824219 441.023438 78.714844 443.203125 80.511719 444.753906 C 82.707031 446.644531 88.550781 441.703125 90.15625 440.324219 C 93.492188 437.453125 96.125 433.769531 97.707031 429.660156 C 97.503906 430.183594 98.65625 432.636719 98.796875 433.308594 C 99.121094 434.84375 99.300781 436.40625 99.328125 437.976562 C 99.359375 439.875 98.015625 443.351562 99.855469 444.277344 Z M 99.855469 444.277344 " style=" stroke:none;fill-rule:nonzero;fill:rgb(97.647059%,84.705882%,53.72549%);fill-opacity:1;" />
<path d="M 331.089844 340.140625 C 326.988281 357.5 317.398438 372.570312 308.570312 385.019531 C 285.621094 417.308594 257.628906 445.378906 225.351562 468.441406 L 222.921875 470.179688 L 221.179688 467.75 C 221.109375 467.660156 220.878906 467.320312 220.878906 467.320312 L 187.121094 417.171875 L 210.859375 393.25 L 210.851562 393.25 L 262.449219 341.21875 L 263.050781 340.621094 L 317.238281 285.992188 L 319.308594 288.851562 C 329.921875 303.511719 334.761719 324.601562 331.089844 340.140625 Z M 331.089844 340.140625 " style=" stroke:none;fill-rule:nonzero;fill:rgb(74.901961%,78.039216%,84.705882%);fill-opacity:1;" />
<path d="M 192.390625 185.308594 L 137.960938 243.699219 L 137.949219 243.691406 L 121.789062 261.039062 C 118.710938 264.339844 115.648438 267.671875 112.589844 271 L 110.539062 273.230469 C 104.289062 280.03125 97.820312 287.070312 91.25 293.890625 L 88.808594 296.429688 L 88.789062 296.410156 L 87.238281 298 C 86.109375 299.160156 84.96875 300.320312 83.820312 301.460938 C 81.738281 303.539062 79.519531 305.621094 77.371094 307.621094 C 73.609375 311.128906 70.238281 314.300781 67.140625 317.679688 L 65.390625 319.582031 L 13.890625 284.910156 L 13.628906 284.71875 L 11.179688 282.980469 L 12.929688 280.539062 C 36.019531 248.25 64.089844 220.25 96.359375 197.320312 C 108.808594 188.492188 123.871094 178.902344 141.230469 174.800781 C 146.550781 173.539062 151.941406 172.910156 157.261719 172.910156 C 169.640625 172.910156 181.171875 176.421875 189.761719 182.800781 L 189.980469 182.910156 L 190.339844 183.261719 Z M 192.390625 185.308594 " style=" stroke:none;fill-rule:nonzero;fill:rgb(74.901961%,78.039216%,84.705882%);fill-opacity:1;" />
<path d="M 67.730469 346.417969 L 65.511719 344.074219 L 53.03125 357.738281 L 55.332031 359.753906 C 83.101562 384.121094 112.167969 407.703125 141.710938 429.851562 L 143.929688 431.515625 L 145.761719 429.433594 C 147.789062 427.128906 149.703125 425.078125 151.550781 423.09375 L 152.078125 422.53125 L 153.382812 419.792969 L 151.292969 418.339844 C 121.132812 397.347656 93.019531 373.152344 67.730469 346.417969 Z M 67.730469 346.417969 " style=" stroke:none;fill-rule:nonzero;fill:rgb(74.901961%,78.039216%,84.705882%);fill-opacity:1;" />
<path d="M 479.667969 0.976562 C 478.796875 0.144531 477.554688 -0.183594 476.386719 0.101562 C 419.886719 13.933594 355.851562 29.617188 305.425781 67.101562 C 282.804688 83.917969 263.402344 104.730469 244.640625 124.855469 L 206.421875 165.851562 C 190.535156 154.484375 168.714844 150.351562 146.269531 154.542969 C 128.636719 157.84375 110.558594 165.914062 89.375 179.949219 C 57.492188 201.070312 29.710938 227.304688 6.800781 257.921875 C 3.039062 262.945312 -0.613281 268.960938 0.816406 275.484375 C 2.128906 281.457031 6.980469 285.15625 11.84375 288.425781 L 60.382812 321.113281 C 59.324219 322.527344 58.3125 323.972656 57.410156 325.476562 C 56.519531 326.964844 56.839844 328.875 58.167969 329.992188 C 59.441406 331.070312 62.347656 333.546875 66.429688 337.03125 L 49.664062 355.386719 C 49.023438 356.085938 48.691406 357.015625 48.742188 357.960938 C 48.796875 358.90625 49.226562 359.792969 49.9375 360.421875 C 54.964844 364.855469 60.046875 369.25 65.15625 373.628906 C 59.847656 374.25 54.460938 376.492188 49.867188 380.191406 C 42.394531 386.21875 37.859375 394.894531 34.742188 401.78125 C 33.792969 403.882812 32.878906 406.027344 31.996094 408.097656 C 29.609375 413.703125 27.355469 418.996094 24.277344 423.875 C 21.015625 429.042969 15.457031 435.660156 7.496094 437.824219 C 5.910156 438.257812 4.832031 439.726562 4.894531 441.371094 C 4.957031 443.015625 6.144531 444.398438 7.761719 444.707031 C 13.347656 445.777344 19.019531 446.214844 24.667969 446.042969 C 18.675781 451.003906 13.671875 457.164062 10.183594 464.089844 C 3.144531 478.058594 2.285156 495.121094 7.886719 509.726562 C 8.414062 511.105469 9.734375 511.996094 11.183594 511.996094 C 11.300781 511.996094 11.417969 511.992188 11.53125 511.980469 C 13.113281 511.824219 14.398438 510.632812 14.671875 509.0625 C 16.464844 498.65625 19.359375 491.101562 23.789062 485.289062 C 29.101562 478.320312 36.9375 474.277344 44.207031 474.707031 C 46.332031 474.835938 48.488281 475.324219 50.769531 475.839844 C 52.464844 476.222656 54.214844 476.621094 56.027344 476.882812 C 67.925781 478.597656 80.082031 473.507812 87.894531 464.628906 C 86.78125 468.070312 84.925781 471.265625 82.414062 473.867188 C 81.359375 474.960938 81.121094 476.605469 81.824219 477.953125 C 82.523438 479.300781 84.007812 480.050781 85.511719 479.8125 C 98.304688 477.792969 110.089844 471.347656 118.695312 461.664062 C 126.4375 452.953125 132.191406 440.3125 133.792969 428.957031 C 136.503906 431.007812 139.210938 433.066406 141.929688 435.09375 C 142.5625 435.566406 143.304688 435.792969 144.042969 435.792969 C 145.050781 435.792969 146.054688 435.363281 146.75 434.535156 C 149.59375 431.148438 152.191406 428.371094 154.699219 425.683594 C 156.996094 423.226562 159.367188 420.691406 161.953125 417.667969 C 162.300781 417.953125 162.648438 418.234375 162.984375 418.507812 C 166.996094 421.769531 170.125 424.257812 172.285156 425.902344 C 174.609375 427.667969 176.496094 429.105469 178.21875 429.105469 C 179.042969 429.101562 179.828125 428.777344 180.605469 428 L 185.902344 422.660156 L 217.464844 469.53125 C 220.734375 474.390625 224.429688 479.246094 230.40625 480.554688 C 231.398438 480.773438 232.378906 480.875 233.34375 480.875 C 238.734375 480.875 243.710938 477.761719 247.96875 474.574219 C 278.585938 451.660156 304.820312 423.878906 325.941406 392 C 339.976562 370.816406 348.050781 352.738281 351.347656 335.101562 C 355.222656 314.386719 349.082031 288.070312 336.414062 270.910156 L 358.851562 248.289062 C 383.027344 223.914062 408.027344 198.707031 426.746094 168.910156 C 458.183594 118.871094 470.144531 57.957031 480.695312 4.214844 C 480.929688 3.03125 480.539062 1.8125 479.667969 0.976562 Z M 7.722656 273.972656 C 6.902344 270.242188 9.515625 266.089844 12.457031 262.15625 C 34.882812 232.191406 62.074219 206.515625 93.277344 185.84375 C 113.644531 172.347656 130.898438 164.613281 147.570312 161.496094 C 167.765625 157.714844 187.292969 161.21875 201.558594 171.074219 L 190.9375 182.46875 C 190.828125 182.332031 190.710938 182.203125 190.566406 182.09375 C 177.867188 172.566406 159.335938 169.460938 140.992188 173.785156 C 123.453125 177.921875 108.285156 187.578125 95.757812 196.476562 C 63.335938 219.511719 35.21875 247.578125 12.109375 279.90625 C 9.914062 278.132812 8.21875 276.234375 7.722656 273.972656 Z M 15.789062 282.566406 C 15.652344 282.472656 15.511719 282.378906 15.375 282.285156 C 38.226562 250.308594 66.035156 222.550781 98.097656 199.769531 C 110.308594 191.097656 125.058594 181.695312 141.917969 177.714844 C 159.109375 173.664062 176.386719 176.503906 188.140625 185.328125 C 188.167969 185.347656 188.195312 185.359375 188.226562 185.375 C 179.398438 194.847656 170.570312 204.316406 161.742188 213.785156 C 147.667969 228.882812 133.652344 243.917969 119.597656 258.996094 C 115.945312 262.914062 112.316406 266.863281 108.6875 270.8125 C 99.835938 280.449219 90.976562 290.089844 81.710938 299.332031 C 79.695312 301.34375 77.570312 303.328125 75.320312 305.425781 C 71.789062 308.722656 68.207031 312.085938 64.933594 315.65625 Z M 65.101562 326.609375 C 69.105469 320.894531 74.703125 315.667969 80.144531 310.59375 C 82.335938 308.546875 84.601562 306.429688 86.703125 304.335938 C 96.050781 295.015625 105.117188 285.144531 113.890625 275.597656 C 117.507812 271.65625 121.125 267.71875 124.769531 263.816406 L 249.8125 129.675781 C 268.359375 109.78125 287.539062 89.207031 309.644531 72.773438 C 311.105469 71.6875 312.582031 70.617188 314.066406 69.570312 C 313.472656 71.808594 313.179688 74.132812 313.25 76.464844 C 313.511719 85.015625 318.527344 93.199219 326.027344 97.3125 C 331.351562 100.234375 337.90625 101.128906 344.636719 100.027344 C 266.914062 168.363281 190.160156 248.25 98.988281 355.5 C 88.902344 346.917969 80.0625 339.371094 74.136719 334.316406 C 70.300781 331.042969 67.207031 328.402344 65.101562 326.609375 Z M 378.628906 128.5625 C 381.84375 129.558594 385.019531 129.671875 388.089844 129.191406 L 135.316406 386.277344 C 125.089844 377.65625 114.304688 368.515625 104.378906 360.078125 C 201.324219 246.03125 281.898438 163.03125 364.679688 91.980469 C 363.5625 95.792969 362.824219 99.761719 362.800781 103.867188 C 362.71875 117.449219 370.945312 126.1875 378.628906 128.5625 Z M 127.152344 424.105469 C 126.730469 434.992188 121.207031 448.199219 113.40625 456.972656 C 107.980469 463.078125 100.855469 467.816406 93.105469 470.59375 C 96.175781 464.054688 97.023438 456.449219 95.210938 449.449219 C 94.808594 447.898438 93.417969 446.8125 91.816406 446.800781 L 91.789062 446.800781 C 90.199219 446.800781 88.804688 447.859375 88.382812 449.394531 C 84.78125 462.4375 70.429688 471.816406 57.035156 469.890625 C 55.5 469.667969 53.960938 469.320312 52.328125 468.949219 C 49.871094 468.390625 47.332031 467.816406 44.632812 467.652344 C 35.042969 467.070312 24.882812 472.1875 18.164062 481.007812 C 15.429688 484.597656 13.207031 488.691406 11.425781 493.476562 C 10.738281 484.492188 12.449219 475.296875 16.492188 467.269531 C 22.113281 456.109375 32.230469 447.226562 43.980469 442.972656 C 45.191406 442.617188 46.394531 442.234375 47.589844 441.820312 C 49.394531 441.195312 50.375 439.246094 49.804688 437.425781 C 49.234375 435.601562 47.320312 434.566406 45.484375 435.074219 C 44.246094 435.417969 43.019531 435.808594 41.8125 436.242188 C 34.824219 438.265625 27.570312 439.191406 20.320312 438.988281 C 24.675781 435.535156 27.957031 431.289062 30.253906 427.644531 C 33.632812 422.289062 36.105469 416.484375 38.5 410.871094 C 39.367188 408.832031 40.261719 406.726562 41.183594 404.699219 C 43.976562 398.527344 47.992188 390.789062 54.304688 385.699219 C 60.410156 380.777344 68.164062 379.179688 74.058594 381.632812 C 74.308594 381.734375 74.558594 381.800781 74.8125 381.84375 C 75.863281 382.730469 76.921875 383.609375 77.972656 384.492188 C 73.574219 385.226562 69.105469 387.550781 65.402344 391.230469 C 61.453125 395.152344 58.667969 399.957031 55.976562 404.601562 C 55.207031 405.933594 54.433594 407.261719 53.640625 408.570312 C 50.65625 413.457031 46.441406 419.386719 40.222656 421.878906 C 39.359375 422.226562 38.84375 423.121094 38.976562 424.042969 C 39.105469 424.964844 39.855469 425.675781 40.78125 425.765625 C 49.410156 426.59375 58.171875 425.242188 66.148438 421.925781 C 61.960938 429.878906 61.058594 439.585938 64.074219 448.085938 C 64.359375 448.894531 65.125 449.429688 65.976562 449.429688 C 66.011719 449.429688 66.046875 449.425781 66.082031 449.425781 C 66.976562 449.378906 67.730469 448.75 67.941406 447.882812 C 70.027344 439.210938 75.914062 431.425781 83.625 426.921875 C 83.371094 432.9375 81.367188 438.8125 77.851562 443.742188 C 77.359375 444.433594 77.351562 445.363281 77.835938 446.0625 C 78.320312 446.761719 79.191406 447.085938 80.015625 446.863281 C 87.566406 444.851562 94.027344 439.464844 97.554688 432.539062 C 98.535156 436.34375 98.546875 440.402344 97.527344 444.195312 C 97.320312 444.957031 97.578125 445.769531 98.191406 446.277344 C 98.800781 446.777344 99.652344 446.878906 100.359375 446.535156 C 111.058594 441.335938 118.742188 430.359375 120.234375 418.578125 C 122.546875 420.371094 124.859375 422.152344 127.179688 423.925781 C 127.171875 423.984375 127.15625 424.042969 127.152344 424.105469 Z M 99.363281 426.007812 C 98.980469 425.269531 98.1875 424.855469 97.355469 424.925781 C 96.527344 425.015625 95.839844 425.601562 95.617188 426.40625 C 93.960938 432.5 89.722656 437.746094 84.246094 440.8125 C 86.804688 435.449219 87.988281 429.472656 87.628906 423.496094 C 87.589844 422.832031 87.226562 422.230469 86.65625 421.886719 C 86.085938 421.542969 85.382812 421.503906 84.777344 421.78125 C 76.796875 425.410156 70.1875 432.109375 66.4375 440.074219 C 65.714844 432.011719 68.457031 423.621094 74.058594 417.742188 C 74.757812 417.003906 74.804688 415.863281 74.160156 415.074219 C 73.519531 414.285156 72.390625 414.097656 71.527344 414.632812 C 64.429688 419.042969 56.234375 421.542969 47.910156 421.914062 C 51.890625 418.652344 54.824219 414.386719 57.089844 410.671875 C 57.902344 409.339844 58.6875 407.984375 59.472656 406.628906 C 62.152344 402.007812 64.683594 397.640625 68.25 394.097656 C 71.597656 390.773438 77.136719 387.566406 82.617188 388.378906 C 93.757812 397.625 105.046875 406.714844 116.445312 415.625 C 116.027344 425.59375 110.484375 435.234375 102.21875 440.808594 C 102.679688 435.738281 101.699219 430.53125 99.363281 426.007812 Z M 149.535156 420.859375 C 147.605469 422.921875 145.628906 425.039062 143.511719 427.453125 C 114.003906 405.328125 85.03125 381.816406 57.3125 357.5 L 65.546875 348.480469 C 90.972656 375.351562 119.222656 399.667969 149.585938 420.804688 C 149.566406 420.824219 149.550781 420.839844 149.535156 420.859375 Z M 152.359375 417.816406 C 151.746094 418.410156 131.355469 402.40625 129.371094 400.867188 C 118.238281 392.242188 107.476562 383.136719 97.128906 373.582031 C 94.652344 371.296875 68.179688 345.59375 68.277344 345.488281 C 68.277344 345.488281 71.808594 341.625 71.808594 341.625 C 71.265625 342.21875 124.390625 387.671875 128.996094 391.570312 C 131.214844 393.449219 133.4375 395.324219 135.660156 397.199219 C 139.035156 400.042969 142.414062 402.882812 145.878906 405.621094 C 147.722656 407.078125 149.589844 408.507812 151.488281 409.894531 C 153.042969 411.03125 155.097656 411.777344 156.386719 413.1875 C 155.285156 414.847656 153.714844 416.335938 152.359375 417.816406 Z M 223.324219 465.585938 C 223.324219 465.585938 190.976562 417.542969 190.976562 417.542969 C 190.644531 417.046875 203.417969 405.066406 204.695312 403.808594 C 209.34375 399.242188 215.257812 395.015625 219.300781 389.945312 C 227.5 379.660156 237.558594 370.582031 246.863281 361.199219 C 262.679688 345.25 278.421875 329.378906 294.269531 313.40625 C 301.804688 305.804688 309.339844 298.207031 316.878906 290.609375 C 326.878906 304.429688 331.632812 324.804688 328.175781 339.457031 C 324.195312 356.316406 314.792969 371.070312 306.121094 383.277344 C 283.34375 415.339844 255.585938 443.144531 223.609375 466 C 223.511719 465.863281 223.417969 465.722656 223.324219 465.585938 Z M 344.394531 333.804688 C 341.277344 350.480469 333.539062 367.730469 320.046875 388.097656 C 299.371094 419.296875 273.695312 446.492188 243.730469 468.917969 C 239.796875 471.859375 235.652344 474.472656 231.917969 473.65625 C 229.65625 473.15625 227.757812 471.460938 225.984375 469.265625 C 258.3125 446.15625 286.378906 418.035156 309.410156 385.617188 C 318.308594 373.089844 327.964844 357.921875 332.101562 340.382812 C 335.851562 324.496094 330.660156 302.402344 319.761719 287.699219 L 331.351562 276.011719 C 342.507812 291.714844 347.871094 315.222656 344.394531 333.804688 Z M 420.757812 165.152344 C 402.457031 194.285156 377.734375 219.207031 353.828125 243.3125 L 177.546875 421.046875 C 172.21875 417.121094 157.648438 405.054688 140.738281 390.839844 L 398.359375 128.828125 C 397.996094 133.933594 398.8125 139.121094 400.902344 143.804688 C 404.902344 152.757812 413.351562 159.523438 422.902344 161.652344 C 422.195312 162.824219 421.484375 163.992188 420.757812 165.152344 Z M 426.679688 155.167969 C 426.632812 155.160156 426.59375 155.144531 426.546875 155.136719 C 418.285156 154.105469 410.753906 148.523438 407.355469 140.921875 C 403.960938 133.316406 404.832031 123.984375 409.578125 117.140625 C 410.59375 115.679688 410.363281 113.695312 409.042969 112.503906 C 407.722656 111.3125 405.722656 111.289062 404.375 112.445312 C 394.621094 120.808594 387.101562 123.785156 380.714844 121.808594 C 373.535156 119.589844 369.824219 111.125 369.867188 103.910156 C 369.917969 95.535156 373.777344 87.15625 377.179688 79.765625 C 377.886719 78.238281 377.414062 76.425781 376.058594 75.433594 C 374.695312 74.441406 372.828125 74.542969 371.585938 75.675781 C 365.414062 81.316406 359.027344 87.144531 351.515625 90.585938 C 343.652344 94.191406 335.394531 94.390625 329.425781 91.117188 C 324.078125 88.183594 320.503906 82.347656 320.316406 76.25 C 320.132812 70.246094 323.417969 64.058594 328.5 60.851562 C 329.089844 60.476562 329.527344 59.957031 329.800781 59.371094 C 355.453125 44.058594 383.757812 33.160156 412.242188 24.449219 C 415.476562 34.945312 421.84375 44.363281 430.4375 51.238281 C 439.117188 58.183594 449.824219 62.339844 460.886719 63.132812 C 453.0625 94.816406 442.71875 126.609375 426.679688 155.167969 Z M 462.566406 56.15625 C 452.511719 55.6875 442.726562 52.015625 434.851562 45.71875 C 427.375 39.734375 421.832031 31.546875 419.011719 22.417969 C 437.128906 17.089844 455.234375 12.566406 472.691406 8.285156 C 469.628906 23.847656 466.394531 39.953125 462.566406 56.15625 Z M 462.566406 56.15625 " style=" stroke:none;fill-rule:nonzero;fill:rgb(0%,0%,0%);fill-opacity:1;" />
</g>
</svg>